<?xml version="1.0" encoding="UTF-8" standalone="no"?>
<svg
   viewBox="0 0 576 512"
   version="1.1"
   id="svg115"
   sodipodi:docname="ico.svg"
   xml:space="preserve"
   inkscape:version="1.2.1 (9c6d41e410, 2022-07-14)"
   xmlns:inkscape="http://www.inkscape.org/namespaces/inkscape"
   xmlns:sodipodi="http://sodipodi.sourceforge.net/DTD/sodipodi-0.dtd"
   xmlns="http://www.w3.org/2000/svg"
   xmlns:svg="http://www.w3.org/2000/svg"><defs
     id="defs119" /><sodipodi:namedview
     id="namedview117"
     pagecolor="#ffffff"
     bordercolor="#999999"
     borderopacity="1"
     inkscape:showpageshadow="0"
     inkscape:pageopacity="0"
     inkscape:pagecheckerboard="0"
     inkscape:deskcolor="#d1d1d1"
     showgrid="false"
     inkscape:zoom="0.71484375"
     inkscape:cx="607.12568"
     inkscape:cy="307.75956"
     inkscape:window-width="1920"
     inkscape:window-height="935"
     inkscape:window-x="0"
     inkscape:window-y="0"
     inkscape:window-maximized="1"
     inkscape:current-layer="svg115" /><!--! Font Awesome Pro 6.1.1 by @fontawesome - https://fontawesome.com License - https://fontawesome.com/license (Commercial License) Copyright 2022 Fonticons, Inc. --><path
     d="m 182.38373,84.373558 c 0,-21.87412 17.74023,-39.606102 39.6061,-39.606102 h 39.6061 v 66.010174 c 0,7.29412 5.94092,13.20203 13.20204,13.20203 h 26.40406 c 7.26112,0 13.20204,-5.90791 13.20204,-13.20203 V 44.767456 h 39.6061 c 21.86587,0 39.6061,17.731982 39.6061,39.606102 V 189.98983 c 0,21.86587 -17.74023,39.6061 -39.6061,39.6061 H 221.98983 c -21.86587,0 -39.6061,-17.74023 -39.6061,-39.6061 z M 129.57559,282.40407 v 66.01017 c 0,7.26112 5.94091,13.20203 13.20203,13.20203 h 26.40407 c 7.26112,0 13.20204,-5.94091 13.20204,-13.20203 v -66.01017 h 39.6061 c 21.86587,0 39.6061,17.74023 39.6061,39.6061 v 105.61628 c 0,21.86586 -17.74023,39.60609 -39.6061,39.60609 H 89.96949 c -21.87412,0 -39.606102,-17.74023 -39.606102,-39.60609 V 322.01017 c 0,-21.86587 17.731982,-39.6061 39.606102,-39.6061 z m 264.04068,0 v 66.01017 c 0,7.26112 5.94092,13.20203 13.20204,13.20203 h 26.40407 c 7.26112,0 13.20203,-5.94091 13.20203,-13.20203 v -66.01017 h 39.6061 c 21.86587,0 39.6061,17.74023 39.6061,39.6061 v 105.61628 c 0,21.86586 -17.74023,39.60609 -39.6061,39.60609 H 354.01017 c -21.86587,0 -39.6061,-17.74023 -39.6061,-39.60609 V 322.01017 c 0,-21.86587 17.74023,-39.6061 39.6061,-39.6061 z"
     id="path113"
     style="fill:#584b4f;fill-opacity:1;stroke-width:0.825127" /></svg>
